{
  "routes": [
    {
      "method": "GET",
      "path": "/kempervans",
      "handler": "kempervan.find",
      "config": {
        "policies": []
      }
    },
    {
      "method": "GET",
      "path": "/kempervans/count",
      "handler": "kempervan.count",
      "config": {
        "policies": []
      }
    },
    {
      "method": "GET",
      "path": "/kempervans/:slug_kempervan",
      "handler": "kempervan.findOne",
      "config": {
        "policies": []
      }
    },
    {
      "method": "POST",
      "path": "/kempervans",
      "handler": "kempervan.create",
      "config": {
        "policies": []
      }
    },
    {
      "method": "PUT",
      "path": "/kempervans/:id",
      "handler": "kempervan.update",
      "config": {
        "policies": []
      }
    },
    {
      "method": "DELETE",
      "path": "/kempervans/:id",
      "handler": "kempervan.delete",
      "config": {
        "policies": []
      }
    }
  ]
}
