{
  "collectionName": "components_shared_homepage_perlengkapans",
  "info": {
    "name": "homepage_perlengkapan",
    "icon": "align-left"
  },
  "options": {},
  "attributes": {
    "perlengkapans": {
      "collection": "peralatan"
    }
  }
}
