{
  "collectionName": "components_shared_info_user_orders",
  "info": {
    "name": "Info_user_order",
    "icon": "air-freshener",
    "description": ""
  },
  "options": {},
  "attributes": {
    "description": {
      "type": "text"
    },
    "amount": {
      "type": "integer"
    },
    "payer_email": {
      "type": "string"
    },
    "mobile_number": {
      "type": "string"
    },
    "given_names": {
      "type": "string"
    },
    "email": {
      "type": "string"
    },
    "sub_total_pemesanan": {
      "type": "string"
    }
  }
}
