{
  "collectionName": "components_shared_reviews",
  "info": {
    "name": "review",
    "icon": "child"
  },
  "options": {},
  "attributes": {
    "review_detail": {
      "type": "json"
    }
  }
}
