{
  "collectionName": "components_shared_share_image_reservasi_camps",
  "info": {
    "name": "share_image_reservasi_camp",
    "icon": "arrow-alt-circle-left"
  },
  "options": {},
  "attributes": {
    "media": {
      "model": "file",
      "via": "related",
      "allowedTypes": [
        "images",
        "files",
        "videos"
      ],
      "plugin": "upload",
      "required": false,
      "pluginOptions": {}
    },
    "alt": {
      "type": "string"
    }
  }
}
