{
  "routes": [
    {
      "method": "GET",
      "path": "/orders",
      "handler": "order.find",
      "config": {
        "policies": []
      }
    },
    {
      "method": "GET",
      "path": "/orders/me",
      "handler": "order.findMe",
      "config": {
        "policies": []
      }
    },
    {
      "method": "GET",
      "path": "/orders/count",
      "handler": "order.count",
      "config": {
        "policies": []
      }
    },
    {
      "method": "GET",
      "path": "/orders/:id",
      "handler": "order.findOne",
      "config": {
        "policies": []
      }
    },
    {
      "method": "GET",
      "path": "/orders-balance",
      "handler": "order.getBalance",
      "config": {
        "policies": []
      }
    },
    {
      "method": "POST",
      "path": "/orders-invoice",
      "handler": "order.createInvoice",
      "config": {
        "policies": []
      }
    }, 
    {
      "method": "POST",
      "path": "/callback-xendit",
      "handler": "order.handleCallbackXendit",
      "config": {
        "policies": []
      }
    },
    {
      "method": "GET",
      "path": "/orders-va",
      "handler": "order.getVA",
      "config": {
        "policies": []
      }
    },
    {
      "method": "POST",
      "path": "/orders",
      "handler": "order.create",
      "config": {
        "policies": []
      }
    },
    {
      "method": "POST",
      "path": "/orders/me",
      "handler": "order.createMe",
      "config": {
        "policies": []
      }
    },
    {
      "method": "PUT",
      "path": "/orders/me",
      "handler": "order.updateMe",
      "config": {
        "policies": []
      }
    },
    {
      "method": "PUT",
      "path": "/orders/:id",
      "handler": "order.update",
      "config": {
        "policies": []
      }
    },
    {
      "method": "DELETE",
      "path": "/orders/:id",
      "handler": "order.delete",
      "config": {
        "policies": []
      }
    }
  ]
}
