{
  "routes": [
    {
      "method": "GET",
      "path": "/peralatans",
      "handler": "peralatan.find",
      "config": {
        "policies": []
      }
    },
    {
      "method": "GET",
      "path": "/peralatans/count",
      "handler": "peralatan.count",
      "config": {
        "policies": []
      }
    },
    {
      "method": "GET",
      "path": "/peralatans/:slug_perlengkapan",
      "handler": "peralatan.findOne",
      "config": {
        "policies": []
      }
    },
    {
      "method": "POST",
      "path": "/peralatans",
      "handler": "peralatan.create",
      "config": {
        "policies": []
      }
    },
    {
      "method": "PUT",
      "path": "/peralatans/:id",
      "handler": "peralatan.update",
      "config": {
        "policies": []
      }
    },
    {
      "method": "DELETE",
      "path": "/peralatans/:id",
      "handler": "peralatan.delete",
      "config": {
        "policies": []
      }
    }
  ]
}
