{
  "kind": "collectionType",
  "collectionName": "orders",
  "info": {
    "name": "Order",
    "description": ""
  },
  "options": {
    "increments": true,
    "timestamps": true,
    "draftAndPublish": true
  },
  "pluginOptions": {},
  "attributes": {
    "info_user_order": {
      "type": "component",
      "repeatable": false,
      "component": "shared.info-user-order"
    },
    "pengiriman": {
      "type": "component",
      "repeatable": false,
      "component": "shared.pengiriman"
    },
    "items": {
      "type": "json"
    },
    "fees": {
      "type": "json"
    },
    "invoice_number": {
      "type": "string"
    },
    "tanggal_pemesanan": {
      "type": "string"
    },
    "user": {
      "plugin": "users-permissions",
      "collection": "user",
      "via": "orders",
      "dominant": true
    },
    "status_payment": {
      "type": "string"
    },
    "category": {
      "type": "string"
    },
    "invoice_url": {
      "type": "string"
    },
    "xendit_response_information": {
      "type": "component",
      "repeatable": false,
      "component": "shared.xendit-response-information"
    },
    "status_booking": {
      "type": "string"
    },
    "review_order": {
      "type": "json"
    }
  }
}
