{
  "collectionName": "components_content_paket_reservasis",
  "info": {
    "name": "paket_reservasi",
    "icon": "bars"
  },
  "options": {},
  "attributes": {
    "judul_paket_reservasi": {
      "type": "string"
    },
    "keterangan_paket_reservasi": {
      "type": "text"
    }
  }
}
