{
  "collectionName": "components_content_related_content_camps",
  "info": {
    "name": "related_content_camp",
    "icon": "allergies",
    "description": ""
  },
  "options": {},
  "attributes": {
    "reservasis": {
      "collection": "reservasi"
    }
  }
}
