{
  "collectionName": "components_content_related_content_glampings",
  "info": {
    "name": "related_content_glamping",
    "icon": "arrows-alt-v"
  },
  "options": {},
  "attributes": {
    "reservasis": {
      "collection": "glamping"
    }
  }
}
