{
  "collectionName": "components_content_related_content_kempervans",
  "info": {
    "name": "related_content_kempervan",
    "icon": "arrows-alt-v"
  },
  "options": {},
  "attributes": {
    "reservasis": {
      "collection": "kempervan"
    }
  }
}
