{
  "kind": "collectionType",
  "collectionName": "orders_midtrans",
  "info": {
    "name": "Orders-Midtrans",
    "description": ""
  },
  "options": {
    "increments": true,
    "timestamps": true,
    "draftAndPublish": true
  },
  "pluginOptions": {},
  "attributes": {
    "order_id": {
      "type": "string"
    },
    "gross_amount": {
      "type": "string"
    },
    "tanggal_pemesanan_midtrans": {
      "type": "string"
    },
    "status_payment_midtrans": {
      "type": "string"
    },
    "category_midtrans": {
      "type": "string"
    },
    "status_booking_midtrans": {
      "type": "string"
    },
    "invoice_url_midtrans": {
      "type": "string"
    },
    "customer_details": {
      "type": "component",
      "repeatable": false,
      "component": "shared.info-user-order-midtrans"
    },
    "user": {
      "plugin": "users-permissions",
      "collection": "user",
      "via": "orders_midtrans",
      "dominant": true
    },
    "review_orders_midtrans": {
      "type": "json"
    },
    "items": {
      "type": "json"
    }
  }
}
